Name,Sex,WeightClassKg,Division,AgeRange,Equipment,Best3SquatKg,Best3BenchKg,Best3DeadliftKg,TotalKg,Event,Place
K. Wernz,M,,Junior,20-23,Multi-ply,288.03,226.8,276.69,791.52,SBD,1
G. Deners,M,90,Open,0-999,Multi-ply,317.51,206.38,256.28,780.18,SBD,1
L. Hoover,M,90,Teen,13-14,Wraps,99.79,77.11,136.08,312.98,SBD,1
J. Evans,M,90,Teen,15-16,Wraps,115.67,72.57,149.69,337.93,SBD,1
Larry Hoover,M,90,Master,40-44,Multi-ply,272.16,145.15,285.76,703.07,SBD,1
